{
    "id": "io.gitlab.gregorni.PartyHat.Devel",
    "runtime": "org.gnome.Platform",
    "runtime-version": "master",
    "sdk": "org.gnome.Sdk",
    "command": "party-hat",
    "finish-args": [
        "--share=network",
        "--share=ipc",
        "--socket=fallback-x11",
        "--device=dri",
        "--socket=wayland"
    ],
    "cleanup": [
        "/include",
        "/lib/pkgconfig",
        "/man",
        "/share/doc",
        "/share/gtk-doc",
        "/share/man",
        "/share/pkgconfig",
        "*.la",
        "*.a"
    ],
    "modules": [
        "build-aux/blueprint-compiler.json",
        "build-aux/zodiac-sign-modules.json",
        {
            "name": "python-dateutil",
            "buildsystem": "simple",
            "build-commands": [
                "pip3 install --verbose --exists-action=i --no-index --find-links=\"file://${PWD}\" --prefix=${FLATPAK_DEST} \"python_dateutil\" --no-build-isolation"
            ],
            "sources": [
                {
                    "type": "file",
                    "url": "https://files.pythonhosted.org/packages/36/7a/87837f39d0296e723bb9b62bbb257d0355c7f6128853c78955f57342a56d/python_dateutil-2.8.2-py2.py3-none-any.whl",
                    "sha256": "961d03dc3453ebbc59dbdea9e4e11c5651520a876d0f4db161e8674aae935da9"
                }
            ]
        },
        {
            "name": "python-pillow",
            "buildsystem": "simple",
            "build-commands": [
                "python3 setup.py install --prefix=/app --root=/"
            ],
            "sources": [
                {
                    "type": "git",
                    "url": "https://github.com/python-pillow/Pillow",
                    "tag": "10.3.0",
                    "commit": "5c89d88eee199ba53f64581ea39b6a1bc52feb1a"
                }
            ]
        },
        {
            "name": "party-hat",
            "builddir": true,
            "buildsystem": "meson",
            "run-tests": true,
            "config-opts": [
                "-Dprofile=development"
            ],
            "sources": [
                {
                    "type": "dir",
                    "path": "."
                }
            ]
        }
    ]
}
