<?xml version="1.0" encoding="UTF-8"?>
<svg height="128px" viewBox="0 0 128 128" width="128px" xmlns="http://www.w3.org/2000/svg" xmlns:xlink="http://www.w3.org/1999/xlink">
    <filter id="a" height="100%" width="100%" x="0%" y="0%">
        <feColorMatrix color-interpolation-filters="sRGB" values="0 0 0 0 1 0 0 0 0 1 0 0 0 0 1 0 0 0 1 0"/>
    </filter>
    <clipPath id="b">
        <path d="m 12 78 h 28 v 28 h -28 z m 0 0"/>
    </clipPath>
    <clipPath id="c">
        <path d="m 11.988281 112 l 52.011719 -104 l 52.011719 104 z m 0 0"/>
    </clipPath>
    <clipPath id="d">
        <path d="m 50 66 h 28 v 28 h -28 z m 0 0"/>
    </clipPath>
    <clipPath id="e">
        <path d="m 11.988281 112 l 52.011719 -104 l 52.011719 104 z m 0 0"/>
    </clipPath>
    <clipPath id="f">
        <path d="m 32 28 h 28 v 28 h -28 z m 0 0"/>
    </clipPath>
    <clipPath id="g">
        <path d="m 11.988281 112 l 52.011719 -104 l 52.011719 104 z m 0 0"/>
    </clipPath>
    <clipPath id="h">
        <path d="m 72 38 h 28 v 28 h -28 z m 0 0"/>
    </clipPath>
    <clipPath id="i">
        <path d="m 11.988281 112 l 52.011719 -104 l 52.011719 104 z m 0 0"/>
    </clipPath>
    <clipPath id="j">
        <path d="m 92 90 h 25 v 22 h -25 z m 0 0"/>
    </clipPath>
    <clipPath id="k">
        <path d="m 11.988281 112 l 52.011719 -104 l 52.011719 104 z m 0 0"/>
    </clipPath>
    <clipPath id="l">
        <path d="m 12 98 h 104 v 14 h -104 z m 0 0"/>
    </clipPath>
    <clipPath id="m">
        <path d="m 11.988281 112 l 52.011719 -104 l 52.011719 104 z m 0 0"/>
    </clipPath>
    <linearGradient id="n" gradientUnits="userSpaceOnUse">
        <stop offset="0" stop-opacity="0.2"/>
        <stop offset="0.48955" stop-color="#ffffff" stop-opacity="0.101961"/>
        <stop offset="1" stop-color="#ffffff" stop-opacity="0"/>
    </linearGradient>
    <linearGradient id="o" x1="82.794453" x2="75.35201" xlink:href="#n" y1="45.581848" y2="49.440842"/>
    <linearGradient id="p" gradientTransform="matrix(-1 0 0 1 127.999458 -172)" x1="82.794456" x2="75.352013" xlink:href="#n" y1="217.581848" y2="221.440842"/>
    <linearGradient id="q" gradientUnits="userSpaceOnUse" x1="12" x2="116" y1="112" y2="112">
        <stop offset="0" stop-color="#88878b"/>
        <stop offset="0.115385" stop-color="#c0bfbc"/>
        <stop offset="0.884615" stop-color="#c0bfbc"/>
        <stop offset="1" stop-color="#88878b"/>
    </linearGradient>
    <linearGradient id="r" gradientUnits="userSpaceOnUse" x1="64" x2="63.999996" y1="100" y2="124">
        <stop offset="0" stop-opacity="0.301961"/>
        <stop offset="1" stop-opacity="0"/>
    </linearGradient>
    <radialGradient id="s" cx="60.61500279277" cy="5.0769805271" gradientUnits="userSpaceOnUse" r="16.92348969819">
        <stop offset="0" stop-color="#e5e5e5"/>
        <stop offset="1" stop-color="#83817c"/>
    </radialGradient>
    <clipPath id="t">
        <path d="m 12 78 h 28 v 28 h -28 z m 0 0"/>
    </clipPath>
    <clipPath id="u">
        <path d="m 11.988281 112 l 52.011719 -104 l 52.011719 104 z m 0 0"/>
    </clipPath>
    <clipPath id="v">
        <path d="m 50 66 h 28 v 28 h -28 z m 0 0"/>
    </clipPath>
    <clipPath id="w">
        <path d="m 11.988281 112 l 52.011719 -104 l 52.011719 104 z m 0 0"/>
    </clipPath>
    <clipPath id="x">
        <path d="m 32 28 h 28 v 28 h -28 z m 0 0"/>
    </clipPath>
    <clipPath id="y">
        <path d="m 11.988281 112 l 52.011719 -104 l 52.011719 104 z m 0 0"/>
    </clipPath>
    <clipPath id="z">
        <path d="m 72 38 h 28 v 28 h -28 z m 0 0"/>
    </clipPath>
    <clipPath id="A">
        <path d="m 11.988281 112 l 52.011719 -104 l 52.011719 104 z m 0 0"/>
    </clipPath>
    <clipPath id="B">
        <path d="m 92 90 h 25 v 22 h -25 z m 0 0"/>
    </clipPath>
    <clipPath id="C">
        <path d="m 11.988281 112 l 52.011719 -104 l 52.011719 104 z m 0 0"/>
    </clipPath>
    <clipPath id="D">
        <path d="m 12 98 h 104 v 14 h -104 z m 0 0"/>
    </clipPath>
    <clipPath id="E">
        <path d="m 11.988281 112 l 52.011719 -104 l 52.011719 104 z m 0 0"/>
    </clipPath>
    <clipPath id="F">
        <rect height="128" width="128"/>
    </clipPath>
    <clipPath id="G">
        <rect height="128" width="128"/>
    </clipPath>
    <mask id="H">
        <g filter="url(#a)">
            <g clip-path="url(#G)" filter="url(#a)">
                <g clip-path="url(#F)">
                    <path d="m 11.988281 112 l 52.011719 -104 l 52.011719 104 z m 0 0" fill="#f6f5f4"/>
                    <g clip-path="url(#t)">
                        <g clip-path="url(#u)">
                            <path d="m 40 92 c 0 7.730469 -6.269531 14 -14 14 s -14 -6.269531 -14 -14 s 6.269531 -14 14 -14 s 14 6.269531 14 14 z m 0 0" fill="#3584e4"/>
                        </g>
                    </g>
                    <g clip-path="url(#v)">
                        <g clip-path="url(#w)">
                            <path d="m 78 80 c 0 7.730469 -6.269531 14 -14 14 s -14 -6.269531 -14 -14 s 6.269531 -14 14 -14 s 14 6.269531 14 14 z m 0 0" fill="#f6d32d"/>
                        </g>
                    </g>
                    <g clip-path="url(#x)">
                        <g clip-path="url(#y)">
                            <path d="m 60 42 c 0 7.730469 -6.269531 14 -14 14 s -14 -6.269531 -14 -14 s 6.269531 -14 14 -14 s 14 6.269531 14 14 z m 0 0" fill="#33d17a"/>
                        </g>
                    </g>
                    <g clip-path="url(#z)">
                        <g clip-path="url(#A)">
                            <path d="m 100 52 c 0 7.730469 -6.269531 14 -14 14 s -14 -6.269531 -14 -14 s 6.269531 -14 14 -14 s 14 6.269531 14 14 z m 0 0" fill="#ed333b"/>
                        </g>
                    </g>
                    <g clip-path="url(#B)">
                        <g clip-path="url(#C)">
                            <path d="m 120 104 c 0 7.730469 -6.269531 14 -14 14 s -14 -6.269531 -14 -14 s 6.269531 -14 14 -14 s 14 6.269531 14 14 z m 0 0" fill="#c061cb"/>
                        </g>
                    </g>
                    <g clip-path="url(#D)">
                        <g clip-path="url(#E)">
                            <path d="m 24 98 h 80 c 6.628906 0 12 5.371094 12 12 s -5.371094 12 -12 12 h -80 c -6.628906 0 -12 -5.371094 -12 -12 s 5.371094 -12 12 -12 z m 0 0" fill="#ffffff" fill-opacity="0.301961"/>
                        </g>
                    </g>
                    <path d="m 11.988281 112 l 52.011719 -104 l 52.011719 104 z m 0 0" fill="url(#o)"/>
                    <path d="m 24 100 h 80 c 6.628906 0 12 5.371094 12 12 s -5.371094 12 -12 12 h -80 c -6.628906 0 -12 -5.371094 -12 -12 s 5.371094 -12 12 -12 z m 0 0" fill="#deddda"/>
                    <path d="m 116.011719 112 l -52.011719 -104 l -52.011719 104 z m 0 0" fill="url(#p)"/>
                    <path d="m 24 100 h 80 c 6.628906 0 12 5.371094 12 12 s -5.371094 12 -12 12 h -80 c -6.628906 0 -12 -5.371094 -12 -12 s 5.371094 -12 12 -12 z m 0 0" fill="url(#q)"/>
                    <path d="m 24 100 h 80 c 6.628906 0 12 5.371094 12 12 s -5.371094 12 -12 12 h -80 c -6.628906 0 -12 -5.371094 -12 -12 s 5.371094 -12 12 -12 z m 0 0" fill="url(#r)"/>
                    <path d="m 64 0 c -6.074219 0 -11 4.925781 -11 11 c 0.007812 3.589844 1.769531 6.949219 4.714844 9 c 1.839844 -1.292969 4.035156 -1.992188 6.285156 -2 c 2.253906 0 4.457031 0.695312 6.300781 1.988281 c 2.9375 -2.050781 4.691407 -5.40625 4.699219 -8.988281 c 0 -6.074219 -4.925781 -11 -11 -11 z m 0 0" fill="url(#s)"/>
                </g>
            </g>
        </g>
    </mask>
    <mask id="I">
        <g filter="url(#a)">
            <rect fill-opacity="0.8" height="184.32" width="184.32" x="-28.16" y="-28.16"/>
        </g>
    </mask>
    <linearGradient id="J" gradientTransform="matrix(0 0.37 -0.98462 0 295.38501 -30.360001)" gradientUnits="userSpaceOnUse" x1="300" x2="428" y1="235" y2="235">
        <stop offset="0" stop-color="#f9f06b"/>
        <stop offset="1" stop-color="#f5c211"/>
    </linearGradient>
    <clipPath id="K">
        <rect height="128" width="128"/>
    </clipPath>
    <clipPath id="L">
        <rect height="128" width="128"/>
    </clipPath>
    <path d="m 11.988281 112 l 52.011719 -104 l 52.011719 104 z m 0 0" fill="#f6f5f4"/>
    <g clip-path="url(#b)">
        <g clip-path="url(#c)">
            <path d="m 40 92 c 0 7.730469 -6.269531 14 -14 14 s -14 -6.269531 -14 -14 s 6.269531 -14 14 -14 s 14 6.269531 14 14 z m 0 0" fill="#3584e4"/>
        </g>
    </g>
    <g clip-path="url(#d)">
        <g clip-path="url(#e)">
            <path d="m 78 80 c 0 7.730469 -6.269531 14 -14 14 s -14 -6.269531 -14 -14 s 6.269531 -14 14 -14 s 14 6.269531 14 14 z m 0 0" fill="#f6d32d"/>
        </g>
    </g>
    <g clip-path="url(#f)">
        <g clip-path="url(#g)">
            <path d="m 60 42 c 0 7.730469 -6.269531 14 -14 14 s -14 -6.269531 -14 -14 s 6.269531 -14 14 -14 s 14 6.269531 14 14 z m 0 0" fill="#33d17a"/>
        </g>
    </g>
    <g clip-path="url(#h)">
        <g clip-path="url(#i)">
            <path d="m 100 52 c 0 7.730469 -6.269531 14 -14 14 s -14 -6.269531 -14 -14 s 6.269531 -14 14 -14 s 14 6.269531 14 14 z m 0 0" fill="#ed333b"/>
        </g>
    </g>
    <g clip-path="url(#j)">
        <g clip-path="url(#k)">
            <path d="m 120 104 c 0 7.730469 -6.269531 14 -14 14 s -14 -6.269531 -14 -14 s 6.269531 -14 14 -14 s 14 6.269531 14 14 z m 0 0" fill="#c061cb"/>
        </g>
    </g>
    <g clip-path="url(#l)">
        <g clip-path="url(#m)">
            <path d="m 24 98 h 80 c 6.628906 0 12 5.371094 12 12 s -5.371094 12 -12 12 h -80 c -6.628906 0 -12 -5.371094 -12 -12 s 5.371094 -12 12 -12 z m 0 0" fill="#ffffff" fill-opacity="0.301961"/>
        </g>
    </g>
    <path d="m 11.988281 112 l 52.011719 -104 l 52.011719 104 z m 0 0" fill="url(#o)"/>
    <path d="m 24 100 h 80 c 6.628906 0 12 5.371094 12 12 s -5.371094 12 -12 12 h -80 c -6.628906 0 -12 -5.371094 -12 -12 s 5.371094 -12 12 -12 z m 0 0" fill="#deddda"/>
    <path d="m 116.011719 112 l -52.011719 -104 l -52.011719 104 z m 0 0" fill="url(#p)"/>
    <path d="m 24 100 h 80 c 6.628906 0 12 5.371094 12 12 s -5.371094 12 -12 12 h -80 c -6.628906 0 -12 -5.371094 -12 -12 s 5.371094 -12 12 -12 z m 0 0" fill="url(#q)"/>
    <path d="m 24 100 h 80 c 6.628906 0 12 5.371094 12 12 s -5.371094 12 -12 12 h -80 c -6.628906 0 -12 -5.371094 -12 -12 s 5.371094 -12 12 -12 z m 0 0" fill="url(#r)"/>
    <path d="m 64 0 c -6.074219 0 -11 4.925781 -11 11 c 0.007812 3.589844 1.769531 6.949219 4.714844 9 c 1.839844 -1.292969 4.035156 -1.992188 6.285156 -2 c 2.253906 0 4.457031 0.695312 6.300781 1.988281 c 2.9375 -2.050781 4.691407 -5.40625 4.699219 -8.988281 c 0 -6.074219 -4.925781 -11 -11 -11 z m 0 0" fill="url(#s)"/>
    <g mask="url(#H)">
        <g clip-path="url(#L)">
            <g mask="url(#I)">
                <g clip-path="url(#K)">
                    <path d="m 128 80.640625 v 47.359375 h -128 v -47.359375 z m 0 0" fill="url(#J)"/>
                    <path d="m 13.308594 80.640625 l 47.355468 47.359375 h 21.214844 l -47.359375 -47.359375 z m 42.421875 0 l 47.363281 47.359375 h 21.214844 l -47.363282 -47.359375 z m 42.429687 0 l 29.839844 29.839844 v -21.210938 l -8.628906 -8.628906 z m -98.160156 7.90625 v 21.214844 l 18.238281 18.238281 h 21.214844 z m 0 0"/>
                </g>
            </g>
        </g>
    </g>
</svg>
